<svg version="1.1" xmlns="http://www.w3.org/2000/svg" viewBox="0 0 509.41611473769035 299.3290757013983" width="509.41611473769035" height="299.3290757013983">
  <!-- svg-source:excalidraw -->
  
  <defs>
    <style class="style-fonts">
      @font-face {
        font-family: "Virgil";
        src: url("https://excalidraw.com/Virgil.woff2");
      }
      @font-face {
        font-family: "Cascadia";
        src: url("https://excalidraw.com/Cascadia.woff2");
      }
    </style>
  </defs>
  <rect x="0" y="0" width="509.41611473769035" height="299.3290757013983" fill="#ffffff"></rect><g stroke-linecap="round"><g transform="translate(273.96646174335115 22.072722050726043) rotate(0 0.09797362461949888 130.60294442902295)" fill-rule="evenodd"><path d="M1.52 0.98 L191.46 258.86 L-191.72 260.91 L-1.31 -0.16" stroke="none" stroke-width="0" fill="#ced4da" fill-rule="evenodd"></path><path d="M-0.13 -1.01 C52.18 71.02, 105.63 145.18, 194.07 261.64 M-0.03 0.34 C42.51 57.57, 85.76 117.14, 192.27 260.22 M193.64 260.16 C87.38 261.61, -16.68 262, -192.8 261.48 M192.6 260.88 C75 262.51, -44.31 263.06, -193.07 260.16 M-193.88 259.15 C-128.03 175.56, -66.2 90.65, -0.88 0.64 M-193.27 259.78 C-124.42 166.3, -54.4 70.69, -0.57 -0.23 M0 0 C0 0, 0 0, 0 0 M0 0 C0 0, 0 0, 0 0" stroke="#000000" stroke-width="1" fill="none"></path></g></g><mask></mask><g stroke-linecap="round"><g transform="translate(142.67106734051367 196.50066963779136) rotate(0 130.7039858411299 0.48931179999408414)"><path d="M1.03 0.46 C44.71 0.42, 217.8 0.14, 261.29 0.2 M0.11 -0.34 C43.72 -0.29, 216.89 0.91, 260.5 1.32" stroke="#000000" stroke-width="1" fill="none"></path></g></g><mask></mask><g stroke-linecap="round"><g transform="translate(198.67106734051367 124.50066963779136) rotate(0 75.0831565529108 0.32210812806169997)"><path d="M-0.63 0.24 C24.46 0.28, 125.86 0.06, 150.79 -0.14 M1.24 -0.68 C26.22 -0.41, 125.25 1.24, 150.26 1.32" stroke="#000000" stroke-width="1" fill="none"></path></g></g><mask></mask><g transform="translate(207.67106734051367 229.50066963779136) rotate(0 55.5 12.5)"><text x="0" y="18" font-family="Virgil, Segoe UI Emoji" font-size="20px" fill="#000000" text-anchor="start" style="white-space: pre;" direction="ltr">Unit Tests</text></g><g transform="translate(186.67106734051367 150.50066963779136) rotate(0 91.5 12.5)"><text x="0" y="18" font-family="Virgil, Segoe UI Emoji" font-size="20px" fill="#000000" text-anchor="start" style="white-space: pre;" direction="ltr">Integration Tests</text></g><g transform="translate(241.67106734051367 62.50066963779136) rotate(0 31 25)"><text x="31" y="18" font-family="Virgil, Segoe UI Emoji" font-size="20px" fill="#000000" text-anchor="middle" style="white-space: pre;" direction="ltr">E2E</text><text x="31" y="43" font-family="Virgil, Segoe UI Emoji" font-size="20px" fill="#000000" text-anchor="middle" style="white-space: pre;" direction="ltr">Tests</text></g><g stroke-linecap="round"><g transform="translate(498.6710673405137 282.50066963779136) rotate(0 0.14621404798572257 -135.65250608050428)"><path d="M0.73 1.2 C0.83 -43.89, 0.37 -225.22, 0.3 -270.85 M-0.34 0.78 C-0.35 -44.61, -0.46 -227.08, -0.45 -272.5" stroke="#000000" stroke-width="1" fill="none"></path></g><g transform="translate(498.6710673405137 282.50066963779136) rotate(0 0.14621404798572257 -135.65250608050428)"><path d="M11.81 -243.68 C8.56 -251.43, 2.79 -259.49, 0.68 -272.66 M10.69 -243.55 C7.18 -252.88, 3.04 -260.95, -0.8 -271.63" stroke="#000000" stroke-width="1" fill="none"></path></g><g transform="translate(498.6710673405137 282.50066963779136) rotate(0 0.14621404798572257 -135.65250608050428)"><path d="M-8.71 -243.67 C-6.29 -251.55, -6.4 -259.62, 0.68 -272.66 M-9.83 -243.54 C-7.17 -252.92, -5.14 -260.99, -0.8 -271.63" stroke="#000000" stroke-width="1" fill="none"></path></g></g><mask></mask><g transform="translate(384.6710673405137 10.500669637791361) rotate(0 46 25)"><text x="46" y="18" font-family="Virgil, Segoe UI Emoji" font-size="20px" fill="#000000" text-anchor="middle" style="white-space: pre;" direction="ltr">execution</text><text x="46" y="43" font-family="Virgil, Segoe UI Emoji" font-size="20px" fill="#000000" text-anchor="middle" style="white-space: pre;" direction="ltr">time</text></g><g stroke-linecap="round"><g transform="translate(12.73032023875328 17.50066963779136) rotate(0 -1.1173752961182117 135.8554065383878)"><path d="M-1.12 0.61 C-1.63 45.62, -1.85 225.54, -2.22 270.54 M0.5 -0.12 C-0.18 45.02, -1.94 226.53, -2.73 271.83" stroke="#000000" stroke-width="1" fill="none"></path></g><g transform="translate(12.73032023875328 17.50066963779136) rotate(0 -1.1173752961182117 135.8554065383878)"><path d="M-11.61 244.9 C-9.6 253.7, -5.83 264.03, -3.68 273.19 M-12.11 243.64 C-9.99 249.43, -9.02 256.21, -2.81 272.59" stroke="#000000" stroke-width="1" fill="none"></path></g><g transform="translate(12.73032023875328 17.50066963779136) rotate(0 -1.1173752961182117 135.8554065383878)"><path d="M8.91 245.17 C3.27 253.68, -0.59 263.91, -3.68 273.19 M8.41 243.9 C5.84 249.73, 2.11 256.45, -2.81 272.59" stroke="#000000" stroke-width="1" fill="none"></path></g></g><mask></mask><g transform="translate(16.171067340513673 235.50066963779136) rotate(0 32.5 12.5)"><text x="32.5" y="18" font-family="Virgil, Segoe UI Emoji" font-size="20px" fill="#000000" text-anchor="middle" style="white-space: pre;" direction="ltr">number</text></g></svg>